{
    "name": "Language",
    "fields": [
        {
            "fieldName": "intID",
            "fieldType": "Long"
        },
        {
            "fieldName": "code",
            "fieldType": "String"
        },
        {
            "fieldName": "description",
            "fieldType": "String"
        }
    ],
    "relationships": [],
    "changelogDate": "20190228144109",
    "entityTableName": "language",
    "dto": "mapstruct",
    "pagination": "no",
    "service": "serviceImpl",
    "jpaMetamodelFiltering": true,
    "fluentMethods": true,
    "clientRootFolder": "mongoco",
    "applications": "*",
    "microserviceName": "mongoco"
}