{
    "name": "Observation",
    "fields": [
        {
            "fieldName": "intID",
            "fieldType": "Long"
        },
        {
            "fieldName": "term",
            "fieldType": "String",
            "fieldValidateRules": [
                "required"
            ]
        }
    ],
    "relationships": [],
    "changelogDate": "20190228144112",
    "entityTableName": "observation",
    "dto": "mapstruct",
    "pagination": "no",
    "service": "serviceImpl",
    "jpaMetamodelFiltering": true,
    "fluentMethods": true,
    "clientRootFolder": "mongoco",
    "applications": "*",
    "microserviceName": "mongoco"
}